
{
    "fileLocations": [
        {
            "URIs": [
                "https://dev-loan-is-funded.s3.amazonaws.com/2019",
                "s3://dev-loan-is-funded/2019/*"
            ]
        },
        {
            "URIPrefixes": []
        }
    ],
    "globalUploadSettings": {
        "format": "JSON"
    }
}
                            